{
  "$schema": "http://json-schema.org/draft-04/schema#",
  "type": "object",
  "properties": {
    "requestId": {
      "type": "integer",
      "id": "http://alleanza.coop.it/webservices/articoli/anagrafichesigle/schema/output/requestId"
    },
    "dettaglioFile": {
      "type": "object",
      "properties": {
        "pathFile": {
          "type": "string",
          "id": "http://alleanza.coop.it/webservices/articoli/anagrafichesigle/schema/output/dettaglioFile/pathFile"
        },
        "nomeFile": {
          "type": "string",
          "id": "http://alleanza.coop.it/webservices/articoli/anagrafichesigle/schema/output/dettaglioFile/nomeFile"
        },
        "ultimoAggiornamento": {
          "type": "string",
          "id": "http://alleanza.coop.it/webservices/articoli/anagrafichesigle/schema/output/dettaglioFile/ultimoAggiornamento"
        },
        "recordCount": {
          "type": "integer",
          "id": "http://alleanza.coop.it/webservices/articoli/anagrafichesigle/schema/output/dettaglioFile/recordCount"
        }
      },
      "id": "http://alleanza.coop.it/webservices/articoli/anagrafichesigle/schema/output/dettaglioFile",
      "required": [
        "pathFile",
        "nomeFile",
        "ultimoAggiornamento",
        "recordCount"
      ]
    },
    "returnStatus": {
      "type": "integer",
      "id": "http://alleanza.coop.it/webservices/articoli/anagrafichesigle/schema/output/returnStatus"
    },
    "returnCode": {
      "type": "string",
      "id": "http://alleanza.coop.it/webservices/articoli/anagrafichesigle/schema/output/returnCode"
    },
    "messaggio": {
      "type": "string",
      "id": "http://alleanza.coop.it/webservices/articoli/anagrafichesigle/schema/output/messaggio"
    }
  },
  "id": "http://alleanza.coop.it/webservices/articoli/anagrafichesigle/schema/output",
  "required": [
    "requestId",  
    "returnStatus"
  ]
}