{
  "$schema": "http://json-schema.org/draft-04/schema#",
  "type": "object",
  "properties": {
    "codiceAzienda": {
      "type": "string",
      "id": "http://alleanza.coop.it/webservices/articoli/cercaarticoli/schema/output/cercaArticoli/codiceAzienda"
    },
    "codiceCanale": {
      "type": "string",
      "id": "http://alleanza.coop.it/webservices/articoli/cercaarticoli/schema/output/cercaArticoli/codiceCanale"
    },
    "requestId": {
      "type": "integer",
      "id": "http://alleanza.coop.it/webservices/articoli/cercaarticoli/schema/output/cercaArticoli/requestId"
    },
    "returnStatus": {
      "type": "integer",
      "id": "http://alleanza.coop.it/webservices/articoli/cercaarticoli/schema/output/cercaArticoli/returnStatus"
    },
    "returnCode": {
      "type": "string",
      "id": "http://alleanza.coop.it/webservices/articoli/cercaarticoli/schema/output/cercaArticoli/returnCode"
    },
    "messaggio": {
      "type": "string",
      "id": "http://alleanza.coop.it/webservices/articoli/cercaarticoli/schema/output/cercaArticoli/messaggio"
    },
    "articoli": {
      "type": "array",
      "items": {
        "type": "object",
        "properties": {
          "codiceNegozio": {
            "type": "string",
            "id": "http://alleanza.coop.it/webservices/articoli/cercaarticoli/schema/output/cercaArticoli/articoli/0/codiceNegozio"
          },
          "codiceArticolo": {
            "type": "integer",
            "id": "http://alleanza.coop.it/webservices/articoli/cercaarticoli/schema/output/cercaArticoli/articoli/0/codiceArticolo"
          },
          "padrePrezzi": {
            "type": "string",
            "id": "http://alleanza.coop.it/webservices/articoli/cercaarticoli/schema/output/cercaArticoli/articoli/0/padrePrezzi"
          },
          "descrizione": {
            "type": "string",
            "id": "http://alleanza.coop.it/webservices/articoli/cercaarticoli/schema/output/cercaArticoli/articoli/0/descrizione"
          },
          "prezzo": {
            "type": "number",
            "id": "http://alleanza.coop.it/webservices/articoli/cercaarticoli/schema/output/cercaArticoli/articoli/0/prezzo"
          },
          "codiceLinearezzo": {
            "type": "string",
            "id": "http://alleanza.coop.it/webservices/articoli/cercaarticoli/schema/output/cercaArticoli/articoli/0/codiceLinearezzo"
          },
          "descrizioneLinea": {
            "type": "string",
            "id": "http://alleanza.coop.it/webservices/articoli/cercaarticoli/schema/output/cercaArticoli/articoli/0/descrizioneLinea"
          },
          "statoArticolo": {
			"enum" : ["A", "I", "R", "S"],
            "id": "http://alleanza.coop.it/webservices/articoli/cercaarticoli/schema/output/cercaArticoli/articoli/0/statoArticolo"
          },
          "flgArtPrezzato": {
            "type": "string",
            "id": "http://alleanza.coop.it/webservices/articoli/cercaarticoli/schema/output/cercaArticoli/articoli/0/flgArtPrezzato"
          },
          "refPesoVar": {
            "type": "string",
            "id": "http://alleanza.coop.it/webservices/articoli/cercaarticoli/schema/output/cercaArticoli/articoli/0/refPesoVar"
          },
          "statoAssortimentale": {
              "enum" : ["A", "S"],
            "id": "http://alleanza.coop.it/webservices/articoli/cercaarticoli/schema/output/cercaArticoli/articoli/0/statoAssortimentale"
          },
          "fittizio": {
            "enum" : ["S","N"],
            "id": "http://alleanza.coop.it/webservices/articoli/cercaarticoli/schema/output/cercaArticoli/articoli/0/fittizio"
          },
          "categoria": {
            "type": "integer",
            "id": "http://alleanza.coop.it/webservices/articoli/cercaarticoli/schema/output/cercaArticoli/articoli/0/categoria"
          },
          "sottoCategoria": {
            "type": "integer",
            "id": "http://alleanza.coop.it/webservices/articoli/cercaarticoli/schema/output/cercaArticoli/articoli/0/sottoCategoria"
          },
          "segmento": {
            "type": "integer",
            "id": "http://alleanza.coop.it/webservices/articoli/cercaarticoli/schema/output/cercaArticoli/articoli/0/segmento"
          },
          "sigla": {
            "type": "string",
            "id": "http://alleanza.coop.it/webservices/articoli/cercaarticoli/schema/output/cercaArticoli/articoli/0/sigla"
          },
          "sottoSigla": {
            "type": "string",
            "id": "http://alleanza.coop.it/webservices/articoli/cercaarticoli/schema/output/cercaArticoli/articoli/0/sottoSigla"
          }
        },
        "id": "http://alleanza.coop.it/webservices/articoli/cercaarticoli/schema/output/cercaArticoli/articoli/0",
        "required": [
          "codiceNegozio",
          "codiceArticolo",
          "padrePrezzi",
          "descrizione",
          "prezzo",
          "codiceLinearezzo",
          "descrizioneLinea",
          "statoArticolo",
          "flgArtPrezzato",
          "refPesoVar",
          "statoAssortimentale",
          "fittizio",
          "categoria",
          "sottoCategoria",
          "segmento",
          "sigla",
          "sottoSigla"
        ]
      },
      "id": "http://alleanza.coop.it/webservices/articoli/cercaarticoli/schema/output/cercaArticoli/articoli"
    }
  },
  "id": "http://alleanza.coop.it/webservices/articoli/cercaarticoli/schema/output/cercaArticoli",
  "required": [
    "requestId",
    "returnStatus"    
  ]
}