{
  "dettaglioFile": {
    "ultimoAggiornamento": "20170109",
    "nomeFile": "nomefile.ext",
    "pathFile": "/ws/livello/merceologico",
    "recordCount" : "11"
  },
  "requestId": 1,
  "returnStatus" : 1,
  "returnCode" : "",
  "messaggio" : ""
}