{
  "codiceAzienda": "azienda",
  "codiceCanale": "canale",
  "requestId": 1,
  "codiceNegozio": "negozio",
  "dataRiferimento": "2010119",
  "maxResults": 20,
  "client": "client",
  "versione": "1.5",
  "userCodeID": 456738,
  "articoliPuntuali": [
    {
      "codiceArticolo": 1111
    },
    {
      "codiceArticolo": 2222
    }
  ],
  "filtriRicerca": {
    "trovaCorrelati": "S",
    "mostraFittizzi": "S",
    "descrizione": "descrizione",
    "stato": "A",
    "categoria": 5,
    "sottoCategoria": 25,
    "segmento": 5,
    "siglaProdotto": "siglaProdotto",
    "sottoSiglaProdotto": "sottoSiglaProdotto"
  }
}