{
  "$schema": "http://json-schema.org/draft-04/schema#",
  "type": "object",
  "properties": {
    "requestId": {
      "type": "integer",
      "id": "http://alleanza.coop.it/webservices/articoli/transkpromo/schema/input/TransKProm/requestId"
    },
    "client": {
      "type": "string",
      "id": "http://alleanza.coop.it/webservices/articoli/transkpromo/schema/input/TransKProm/client"
    },
    "versione": {
      "type": "string",
      "id": "http://alleanza.coop.it/webservices/articoli/transkpromo/schema/input/TransKProm/versione"
    },
    "userCodeID": {
      "type": "integer",
      "id": "http://alleanza.coop.it/webservices/articoli/transkpromo/schema/input/TransKProm/userCodeID"
    },
    "codiceAzienda": {
      "type": "string",
      "id": "http://alleanza.coop.it/webservices/articoli/transkpromo/schema/input/TransKProm/codiceAzienda"
    },
    "codiceCanale": {
      "type": "string",
      "id": "http://alleanza.coop.it/webservices/articoli/transkpromo/schema/input/TransKProm/codiceCanale"
    },
    "codiceNegozio": {
      "type": "string",
      "id": "http://alleanza.coop.it/webservices/articoli/transkpromo/schema/input/TransKProm/codiceNegozio"
    },
    "tipoDato": {
      "type": "string",
      "id": "http://alleanza.coop.it/webservices/articoli/transkpromo/schema/input/TransKProm/tipoDato"
    },
    "transCodifiche": {
      "type": "array",
      "items": {
        "type": "object",
        "properties": {
          "codAnagSicma": {
            "type": "integer",
            "id": "http://alleanza.coop.it/webservices/articoli/transkpromo/schema/input/TransKProm/transcodifiche/0/codAnagSicma"
          },
          "codAnagNegozio": {
            "type": "integer",
            "id": "http://alleanza.coop.it/webservices/articoli/transkpromo/schema/input/TransKProm/transcodifiche/0/codAnagNegozio"
          }
        },
        "id": "http://alleanza.coop.it/webservices/articoli/transkpromo/schema/input/TransKProm/transcodifiche/0"
      },
      "id": "http://alleanza.coop.it/webservices/articoli/transkpromo/schema/input/TransKProm/transCodifiche"
    }
  },
  "id": "http://alleanza.coop.it/webservices/articoli/transkpromo/schema/input/TransKProm",
  "required": [
    "requestId",
    "client",
    "versione",
    "userCodeID",
    "codiceAzienda",
    "codiceCanale",
    "codiceNegozio",
    "tipoDato"
  ]
}