{
  "$schema": "http://json-schema.org/draft-04/schema#",
  "type": "object",
  "properties": {
    "dettagliCheckUpdates": {
      "type": "array",
      "items": {
        "type": "object",
        "properties": {
          "ultimoAggiornamento": {
            "type": "string",
            "id": "http://alleanza.coop.it/webservices/articoli/checkupdates/schema/output/dettagliCheckUpdates/0/ultimoAggiornamento"
          },
          "nomeAnagrafica": {
            "type": "string",
            "id": "http://alleanza.coop.it/webservices/articoli/checkupdates/schema/output/dettagliCheckUpdates/0/nomeAnagrafica"
          }
        },
        "id": "http://alleanza.coop.it/webservices/articoli/checkupdates/schema/output/dettagliCheckUpdates/0",
        "required": [
          "ultimoAggiornamento",
          "nomeAnagrafica"
        ]
      },
      "id": "http://alleanza.coop.it/webservices/articoli/checkupdates/schema/output/dettagliCheckUpdates"
    },
    "messaggio": {
      "type": "string",
      "id": "http://alleanza.coop.it/webservices/articoli/checkupdates/schema/output/messaggio"
    },
    "requestId": {
      "type": "integer",
      "id": "http://alleanza.coop.it/webservices/articoli/checkupdates/schema/output/requestId"
    },
    "returnCode": {
      "type": "string",
      "id": "http://alleanza.coop.it/webservices/articoli/checkupdates/schema/output/returnCode"
    }
  },
  "id": "http://alleanza.coop.it/webservices/articoli/checkupdates/schema/output",
  "required": [
    "requestId",
    "returnCode"
  ]
}